{
  "name": "cesnet-zookeeper",
  "version": "1.0.1",
  "author": "Frantisek Dvorak <valtri@civ.zcu.cz>",
  "summary": "Zookeeper cluster with security",
  "license": "MIT",
  "source": "https://github.com/MetaCenterCloudPuppet/cesnet-zookeeper",
  "project_page": "https://github.com/MetaCenterCloudPuppet/cesnet-zookeeper",
  "issues_url": "https://github.com/MetaCenterCloudPuppet/cesnet-zookeeper/issues",
  "tags": [
    "hadoop",
    "zookeeper"
  ],
  "operatingsystem_support": [
    {
      "operatingsystem": "CentOS",
      "operatingsystemrelease": [
        "6",
        "7"
      ]
    },
    {
      "operatingsystem": "Debian",
      "operatingsystemrelease": [
        "7",
        "8",
        "9"
      ]
    },
    {
      "operatingsystem": "RedHat",
      "operatingsystemrelease": [
        "6",
        "7"
      ]
    },
    {
      "operatingsystem": "Scientific",
      "operatingsystemrelease": [
        "6",
        "7"
      ]
    },
    {
      "operatingsystem": "Ubuntu",
      "operatingsystemrelease": [
        "14.04",
        "16.04"
      ]
    }
  ],
  "requirements": [
    {
      "name": "puppet",
      "version_requirement": ">= 3.4.0"
    }
  ],
  "description": "Zookeeper cluster with security",
  "dependencies": [
    {"name":"puppetlabs/stdlib","version_requirement":">= 1.0.0 <5.0.0"},
    {"name":"cesnet/hadoop_lib","version_requirement":">= 0.3.0 <1.0.0"}
  ]
}
